C:\Users\ASUS\Documents\NetBeansProjects\Abstract\ShapeAb\src\main\java\com\kim\shapeab\Shape.java
C:\Users\ASUS\Documents\NetBeansProjects\Abstract\ShapeAb\src\main\java\com\kim\shapeab\TestShape.java
C:\Users\ASUS\Documents\NetBeansProjects\Abstract\ShapeAb\src\main\java\com\kim\shapeab\Circle.java
